<?xml version="1.0" encoding="UTF-8"?>
<symbol version="7" name="scoreDisplay">
    <symboltype>BLOCK</symboltype>
    <timestamp>2016-5-24T6:18:53</timestamp>
    <pin polarity="Input" x="0" y="-736" name="clkin" />
    <pin polarity="Input" x="0" y="-608" name="inc" />
    <pin polarity="Input" x="0" y="-480" name="digitalADV" />
    <pin polarity="Input" x="0" y="-352" name="enableIn" />
    <pin polarity="Input" x="0" y="-224" name="increaseAux" />
    <pin polarity="Input" x="0" y="-96" name="resetData" />
    <pin polarity="Output" x="384" y="-736" name="outputA" />
    <pin polarity="Output" x="384" y="-672" name="outputB" />
    <pin polarity="Output" x="384" y="-608" name="outputC" />
    <pin polarity="Output" x="384" y="-544" name="outputD" />
    <pin polarity="Output" x="384" y="-480" name="outputF" />
    <pin polarity="Output" x="384" y="-416" name="outputE" />
    <pin polarity="Output" x="384" y="-352" name="outputG" />
    <pin polarity="Output" x="384" y="-288" name="an0" />
    <pin polarity="Output" x="384" y="-224" name="an3_Out" />
    <pin polarity="Output" x="384" y="-160" name="an2_Out" />
    <pin polarity="Output" x="384" y="-96" name="an1_Out" />
    <pin polarity="Output" x="384" y="-32" name="an0_Out" />
    <pin polarity="Output" x="384" y="32" name="countOut(7:0)" />
    <pin polarity="Output" x="384" y="96" name="countOutAux(3:0)" />
    <graph>
        <attrtext style="alignment:BCENTER;fontsize:56;fontname:Arial" attrname="SymbolName" x="192" y="-776" type="symbol" />
        <attrtext style="fontsize:24;fontname:Arial" attrname="PinName" x="72" y="-736" type="pin clkin" />
        <attrtext style="fontsize:24;fontname:Arial" attrname="PinName" x="72" y="-608" type="pin inc" />
        <attrtext style="fontsize:24;fontname:Arial" attrname="PinName" x="72" y="-480" type="pin digitalADV" />
        <attrtext style="fontsize:24;fontname:Arial" attrname="PinName" x="72" y="-352" type="pin enableIn" />
        <attrtext style="fontsize:24;fontname:Arial" attrname="PinName" x="72" y="-224" type="pin increaseAux" />
        <attrtext style="fontsize:24;fontname:Arial" attrname="PinName" x="72" y="-96" type="pin resetData" />
        <attrtext style="alignment:RIGHT;fontsize:24;fontname:Arial" attrname="PinName" x="312" y="-736" type="pin outputA" />
        <attrtext style="alignment:RIGHT;fontsize:24;fontname:Arial" attrname="PinName" x="312" y="-672" type="pin outputB" />
        <attrtext style="alignment:RIGHT;fontsize:24;fontname:Arial" attrname="PinName" x="312" y="-608" type="pin outputC" />
        <attrtext style="alignment:RIGHT;fontsize:24;fontname:Arial" attrname="PinName" x="312" y="-544" type="pin outputD" />
        <attrtext style="alignment:RIGHT;fontsize:24;fontname:Arial" attrname="PinName" x="312" y="-480" type="pin outputF" />
        <attrtext style="alignment:RIGHT;fontsize:24;fontname:Arial" attrname="PinName" x="312" y="-416" type="pin outputE" />
        <attrtext style="alignment:RIGHT;fontsize:24;fontname:Arial" attrname="PinName" x="312" y="-352" type="pin outputG" />
        <attrtext style="alignment:RIGHT;fontsize:24;fontname:Arial" attrname="PinName" x="312" y="-288" type="pin an0" />
        <attrtext style="alignment:RIGHT;fontsize:24;fontname:Arial" attrname="PinName" x="312" y="-224" type="pin an3_Out" />
        <attrtext style="alignment:RIGHT;fontsize:24;fontname:Arial" attrname="PinName" x="312" y="-160" type="pin an2_Out" />
        <attrtext style="alignment:RIGHT;fontsize:24;fontname:Arial" attrname="PinName" x="312" y="-96" type="pin an1_Out" />
        <attrtext style="alignment:RIGHT;fontsize:24;fontname:Arial" attrname="PinName" x="312" y="-32" type="pin an0_Out" />
        <attrtext style="alignment:RIGHT;fontsize:24;fontname:Arial" attrname="PinName" x="312" y="32" type="pin countOut(7:0)" />
        <rect width="64" x="320" y="20" height="24" />
        <line x2="384" y1="32" y2="32" x1="320" />
        <attrtext style="alignment:RIGHT;fontsize:24;fontname:Arial" attrname="PinName" x="312" y="96" type="pin countOutAux(3:0)" />
        <rect width="64" x="320" y="84" height="24" />
        <line x2="384" y1="96" y2="96" x1="320" />
        <line x2="0" y1="-736" y2="-736" x1="64" />
        <line x2="0" y1="-608" y2="-608" x1="64" />
        <line x2="0" y1="-480" y2="-480" x1="64" />
        <line x2="0" y1="-352" y2="-352" x1="64" />
        <line x2="0" y1="-224" y2="-224" x1="64" />
        <line x2="0" y1="-96" y2="-96" x1="64" />
        <line x2="384" y1="-736" y2="-736" x1="320" />
        <line x2="384" y1="-672" y2="-672" x1="320" />
        <line x2="384" y1="-608" y2="-608" x1="320" />
        <line x2="384" y1="-544" y2="-544" x1="320" />
        <line x2="384" y1="-480" y2="-480" x1="320" />
        <line x2="384" y1="-416" y2="-416" x1="320" />
        <line x2="384" y1="-352" y2="-352" x1="320" />
        <line x2="384" y1="-288" y2="-288" x1="320" />
        <line x2="384" y1="-224" y2="-224" x1="320" />
        <line x2="384" y1="-160" y2="-160" x1="320" />
        <line x2="384" y1="-96" y2="-96" x1="320" />
        <line x2="384" y1="-32" y2="-32" x1="320" />
        <rect width="256" x="64" y="-768" height="896" />
    </graph>
</symbol>
