<?xml version="1.0" encoding="UTF-8"?>
<symbol version="7" name="slugComparator">
    <symboltype>BLOCK</symboltype>
    <timestamp>2016-5-19T21:34:26</timestamp>
    <attr value="slugComparator" name="VeriModel" />
    <pin polarity="Input" x="0" y="-32" name="numberIn(9:0)" />
    <pin polarity="Output" x="384" y="-160" name="_LT" />
    <pin polarity="Output" x="384" y="-96" name="_EQ" />
    <pin polarity="Output" x="384" y="-32" name="_GT" />
    <pin polarity="Input" x="0" y="32" name="numberInTwo(9:0)" />
    <graph>
        <attrtext style="alignment:BCENTER;fontsize:56;fontname:Arial" attrname="SymbolName" x="192" y="-200" type="symbol" />
        <attrtext style="fontsize:24;fontname:Arial" attrname="PinName" x="72" y="-32" type="pin numberIn(9:0)" />
        <attrtext style="alignment:RIGHT;fontsize:24;fontname:Arial" attrname="PinName" x="312" y="-160" type="pin _LT" />
        <attrtext style="alignment:RIGHT;fontsize:24;fontname:Arial" attrname="PinName" x="312" y="-96" type="pin _EQ" />
        <attrtext style="alignment:RIGHT;fontsize:24;fontname:Arial" attrname="PinName" x="312" y="-32" type="pin _GT" />
        <attrtext style="fontsize:24;fontname:Arial" attrname="PinName" x="72" y="32" type="pin numberInTwo(9:0)" />
        <rect width="64" x="0" y="20" height="24" />
        <line x2="0" y1="32" y2="32" x1="64" />
        <rect width="64" x="0" y="-44" height="24" />
        <line x2="0" y1="-32" y2="-32" x1="64" />
        <line x2="384" y1="-160" y2="-160" x1="320" />
        <line x2="384" y1="-96" y2="-96" x1="320" />
        <line x2="384" y1="-32" y2="-32" x1="320" />
        <rect width="256" x="64" y="-192" height="256" />
    </graph>
</symbol>
